{
  "project_info": {
    "project_number": "965960939093",
    "firebase_url": "https://chat-e9956.firebaseio.com",
    "project_id": "chat-e9956",
    "storage_bucket": "chat-e9956.appspot.com"
  },
  "client": [
    {
      "client_info": {
        "mobilesdk_app_id": "1:965960939093:android:24ce4ef99969196a",
        "android_client_info": {
          "package_name": "com.example.chat"
        }
      },
      "oauth_client": [
        {
          "client_id": "965960939093-ikv02k4srqihuk1r2gfek74p8dvo0r7q.apps.googleusercontent.com",
          "client_type": 1,
          "android_info": {
            "package_name": "com.example.chat",
            "certificate_hash": "a97c988003c4d86bc1bdc1b1920bcd3c5b4bb011"
          }
        },
        {
          "client_id": "965960939093-e4474gp8i3egq35vj1pva8cl9u5qgb93.apps.googleusercontent.com",
          "client_type": 3
        }
      ],
      "api_key": [
        {
          "current_key": "AIzaSyD_Om2WTOafSCmbyCyaM93aM-5qQ_gZgxA"
        }
      ],
      "services": {
        "appinvite_service": {
          "other_platform_oauth_client": [
            {
              "client_id": "965960939093-e4474gp8i3egq35vj1pva8cl9u5qgb93.apps.googleusercontent.com",
              "client_type": 3
            }
          ]
        }
      }
    }
  ],
  "configuration_version": "1"
}